/home/lautaro/git/laboing/src/main/java/com/ltlg/erplab/service/ReservaService.java
/home/lautaro/git/laboing/src/main/java/com/ltlg/erplab/controller/UserController.java
/home/lautaro/git/laboing/src/main/java/com/ltlg/erplab/model/TipoProducto.java
/home/lautaro/git/laboing/src/main/java/com/ltlg/erplab/ErplabApplication.java
/home/lautaro/git/laboing/src/main/java/com/ltlg/erplab/controller/ReservaController.java
/home/lautaro/git/laboing/src/main/java/com/ltlg/erplab/service/EspacioService.java
/home/lautaro/git/laboing/src/main/java/com/ltlg/erplab/model/ProcedimientoMantenimiento.java
/home/lautaro/git/laboing/src/main/java/com/ltlg/erplab/model/CantAlumno.java
/home/lautaro/git/laboing/src/main/java/com/ltlg/erplab/model/Role.java
/home/lautaro/git/laboing/src/main/java/com/ltlg/erplab/config/SecurityConfiguration.java
/home/lautaro/git/laboing/src/main/java/com/ltlg/erplab/repository/EspacioRepository.java
/home/lautaro/git/laboing/src/main/java/com/ltlg/erplab/repository/UserRepository.java
/home/lautaro/git/laboing/src/main/java/com/ltlg/erplab/service/LoginService.java
/home/lautaro/git/laboing/src/main/java/com/ltlg/erplab/model/EstadoReserva.java
/home/lautaro/git/laboing/src/main/java/com/ltlg/erplab/model/DetalleInformeMantenimiento.java
/home/lautaro/git/laboing/src/main/java/com/ltlg/erplab/model/Espacio.java
/home/lautaro/git/laboing/src/main/java/com/ltlg/erplab/repository/ReservaRepository.java
/home/lautaro/git/laboing/src/main/java/com/ltlg/erplab/repository/PatrimonioRepository.java
/home/lautaro/git/laboing/src/main/java/com/ltlg/erplab/model/Producto.java
/home/lautaro/git/laboing/src/main/java/com/ltlg/erplab/repository/UbicacionRepository.java
/home/lautaro/git/laboing/src/main/java/com/ltlg/erplab/model/Carrera.java
/home/lautaro/git/laboing/src/main/java/com/ltlg/erplab/repository/EquipoRepository.java
/home/lautaro/git/laboing/src/main/java/com/ltlg/erplab/controller/EspacioController.java
/home/lautaro/git/laboing/src/main/java/com/ltlg/erplab/controller/UbicacionController.java
/home/lautaro/git/laboing/src/main/java/com/ltlg/erplab/service/CrudService.java
/home/lautaro/git/laboing/src/main/java/com/ltlg/erplab/controller/ProductoController.java
/home/lautaro/git/laboing/src/main/java/com/ltlg/erplab/model/Componente.java
/home/lautaro/git/laboing/src/main/java/com/ltlg/erplab/model/CustomUserDetails.java
/home/lautaro/git/laboing/src/main/java/com/ltlg/erplab/repository/ProductoRepository.java
/home/lautaro/git/laboing/src/main/java/com/ltlg/erplab/repository/MarcaRepository.java
/home/lautaro/git/laboing/src/main/java/com/ltlg/erplab/controller/TipoProductoController.java
/home/lautaro/git/laboing/src/main/java/com/ltlg/erplab/service/CustomUserDetailsService.java
/home/lautaro/git/laboing/src/main/java/com/ltlg/erplab/model/ProductoXReserva.java
/home/lautaro/git/laboing/src/main/java/com/ltlg/erplab/controller/LoginController.java
/home/lautaro/git/laboing/src/main/java/com/ltlg/erplab/controller/CarreraController.java
/home/lautaro/git/laboing/src/main/java/com/ltlg/erplab/model/Reserva.java
/home/lautaro/git/laboing/src/main/java/com/ltlg/erplab/model/Equipo.java
/home/lautaro/git/laboing/src/main/java/com/ltlg/erplab/model/Identity.java
/home/lautaro/git/laboing/src/main/java/com/ltlg/erplab/controller/MarcaController.java
/home/lautaro/git/laboing/src/main/java/com/ltlg/erplab/model/Inventario.java
/home/lautaro/git/laboing/src/main/java/com/ltlg/erplab/model/Materia.java
/home/lautaro/git/laboing/src/main/java/com/ltlg/erplab/model/User.java
/home/lautaro/git/laboing/src/main/java/com/ltlg/erplab/repository/CarreraRepository.java
/home/lautaro/git/laboing/src/main/java/com/ltlg/erplab/model/Patrimonio.java
/home/lautaro/git/laboing/src/main/java/com/ltlg/erplab/model/Chequeo.java
/home/lautaro/git/laboing/src/main/java/com/ltlg/erplab/controller/PatrimonioController.java
/home/lautaro/git/laboing/src/main/java/com/ltlg/erplab/model/EstadoInventario.java
/home/lautaro/git/laboing/src/main/java/com/ltlg/erplab/model/Marca.java
/home/lautaro/git/laboing/src/main/java/com/ltlg/erplab/model/Ubicacion.java
/home/lautaro/git/laboing/src/main/java/com/ltlg/erplab/repository/TipoProductoRepository.java
/home/lautaro/git/laboing/src/main/java/com/ltlg/erplab/model/ChequeoXProcedimiento.java
/home/lautaro/git/laboing/src/main/java/com/ltlg/erplab/controller/EquipoController.java
/home/lautaro/git/laboing/src/main/java/com/ltlg/erplab/model/TipoActividad.java
/home/lautaro/git/laboing/src/main/java/com/ltlg/erplab/model/InformeMantenimiento.java
